Project 1: Wrangling, Exploration, Visualization
…
glimpse(income_time)

## Rows: 156
## Columns: 3
## $ year          <dbl> 1963, 1963, 1963, 1965, 1965, 1965, 1966, 1966, 1966, 1
## $ percentile    <chr> "10th", "50th", "90th", "10th", "50th", "90th", "10th",
## $ income_family <dbl> 13286.14, 47025.53, 95267.52, 14783.24, 50989.23, 10156

The years 1963, 1965, and 1966 are IDs that appear in income_time but not in income_limits.

inner_join(income_time, income_limits, "year") %>% group_by(year) %>% 
    summarize(n())

## # A tibble: 49 x 2
##     year `n()`
##    <dbl> <int>
##  1  1967    90
##  2  1968    90
##  3  1970    90
##  4  1971    90
##  5  1972   150
##  6  1973   150
##  7  1974   150
##  8  1975   150
##  9  1976   150
## 10  1977   150
## #  with 39 more rows
…
